A Quick Introduction to R For Researchers - 3 Introduction to Data Wrangling
…
This is much more organized and easy to read than the equivalent glimpse(head(artwork, 5)), and this difference will only become more pronounced as we build progressively more complex data pipelines.

3.4 Data Subsetting: select and filter

Let’s now begin to operate on the data. The first thing we’re going to practice is grabbing subsets of the data. We’re going to consider two forms of subsetting: selecting a subset of columns and filtering a subset of rows.

Use select to choose a subset of columns from your data.

artwork %>%
    select(title)

# A tibble: 69,201 × 1
   title                                                                        
   <chr>                                                                        
 1 A Figure Bowing before a Seated Old Man with his Arm Outstretched in Benedic…
 2 Two Drawings of Frightened Figures, Probably for ‘The Approach of Doom’      
 3 The Preaching of Warning. Verso: An Old Man Enthroned Between Two Groups of …
 4 Six Drawings of Figures with Outstretched Arms                               
 5 The Circle of the Lustful: Francesca da Rimini (‘The Whirlwind of Lovers’)   
 6 Ciampolo the Barrator Tormented by the Devils                                
 7 The Baffled Devils Fighting                                                  
 8 The Six-Footed Serpent Attacking Agnolo Brunelleschi                         
 9 The Serpent Attacking Buoso Donati                                           
10 The Pit of Disease: The Falsifiers                                           
# … with 69,191 more rows

You can select multiple columns at a time:

artwork %>%
    select(title, artist, year)

# A tibble: 69,201 × 3
   title                                                            artist  year
   <chr>                                                            <chr>  <dbl>
 1 A Figure Bowing before a Seated Old Man with his Arm Outstretch… Blake…    NA
 2 Two Drawings of Frightened Figures, Probably for ‘The Approach … Blake…    NA
 3 The Preaching of Warning. Verso: An Old Man Enthroned Between T… Blake…  1785
 4 Six Drawings of Figures with Outstretched Arms                   Blake…    NA
 5 The Circle of the Lustful: Francesca da Rimini (‘The Whirlwind … Blake…  1826
 6 Ciampolo the Barrator Tormented by the Devils                    Blake…  1826
 7 The Baffled Devils Fighting                                      Blake…  1826
 8 The Six-Footed Serpent Attacking Agnolo Brunelleschi             Blake…  1826
 9 The Serpent Attacking Buoso Donati                               Blake…  1826
10 The Pit of Disease: The Falsifiers                               Blake…  1826
# … with 69,191 more rows
…
# A tibble: 1 × 3
  earliest_date latest_date     n
          <dbl>       <dbl> <int>
1          1823        2013 69201

This is ok, but summarize gets really powerful when we combine it with group_by().

artwork %>% 
    group_by(artist) %>% 
    summarize(earliest_date = min(acquisitionYear, na.rm = TRUE),
              latest_date   = max(acquisitionYear, na.rm = TRUE),
              n = n())

# A tibble: 3,336 × 4
   artist                 earliest_date latest_date     n
   <chr>                          <dbl>       <dbl> <int>
 1 ?British School                 1927        1927     1
 2 Abakanowicz, Magdalena          2009        2009     4
 3 Abbey, Edwin Austin             1924        1924     6
 4 Abbott, Berenice                2010        2010     3
 5 Abbott, Lemuel Francis          1885        1968     2
 6 Abrahams, Ivor                  1975        1986   108
 7 Absalon                         1997        1997     6
 8 Abts, Tomma                     2006        2012     6
 9 Acconci, Vito                   1982        2010     6
10 Ackling, Roger                  1983        1983     1
# … with 3,326 more rows

We now have a long table that tells us the earliest and latest acquisition dates for each artist represented in the collection.

Sorting: arrange()

In the case above, we had too many rows to conveniently visualize. In cases like these, it is often beneficial to bring certain rows to the top. We can do this by sorting, using the arrange() function. To sort by a column, just add that column as an argument to arrange. To sort in descending order, wrap the column name in desc():

artwork %>% 
    group_by(artist) %>% 
    summarize(earliest_date = min(acquisitionYear, na.rm = TRUE),
              latest_date   = max(acquisitionYear, na.rm = TRUE),
              n = n()) %>% 
    arrange(desc(n))

# A tibble: 3,336 × 4
   artist                         earliest_date latest_date     n
   <chr>                                  <dbl>       <dbl> <int>
 1 Turner, Joseph Mallord William          1847        2007 39389
 2 Jones, George                           1847        1997  1046
 3 Moore, Henry, OM, CH                    1939        1994   623
 4 Daniell, William                        1979        1979   612
 5 Beuys, Joseph                           1972        2009   578
 6 British (?) School                      1997        1997   388
 7 Paolozzi, Sir Eduardo                   1958        2012   385
 8 Flaxman, John                           1922        1997   287
 9 Phillips, Esq Tom                       1971        2001   274
10 Warhol, Andy                            1971        2013   272
# … with 3,326 more rows
…
